Mapping Census Data in R
…
Getting data from the 2018-2022 5-year ACS

Warning: • You have not set a Census API key. Users without a key are limited to 500
queries per day and may experience performance limitations.
ℹ For best results, get a Census API key at
http://api.census.gov/data/key_signup.html and then supply the key to the
`census_api_key()` function to use it throughout your tidycensus session.
This warning is displayed once per session.

latino_pop_PA

# A tibble: 67 × 5
   GEOID NAME                           variable   estimate   moe
   <chr> <chr>                          <chr>         <dbl> <dbl>
 1 42001 Adams County, Pennsylvania     B03001_003     7688    NA
 2 42003 Allegheny County, Pennsylvania B03001_003    29272    NA
 3 42005 Armstrong County, Pennsylvania B03001_003      560    NA
 4 42007 Beaver County, Pennsylvania    B03001_003     3227    NA
 5 42009 Bedford County, Pennsylvania   B03001_003      598    NA
 6 42011 Berks County, Pennsylvania     B03001_003    99460    NA
 7 42013 Blair County, Pennsylvania     B03001_003     1721    NA
 8 42015 Bradford County, Pennsylvania  B03001_003      946    NA
 9 42017 Bucks County, Pennsylvania     B03001_003    38195    NA
10 42019 Butler County, Pennsylvania    B03001_003     3391    NA
# ℹ 57 more rows
…
The resulting table will have a column name with the variable code (you will input this text in the get_acs() function), a label column with the description fo the variable, a concept with the group variable and a geography column specifying the smallest level at which the variable is available.

For our purpose, the ACS 2022 variables that contain the number of people of Hispanic or Latino Origin are from row 580 to 609. Here is an extract of these rows.

vars[580:609,]

# A tibble: 30 × 4
   name       label                                            concept geography
   <chr>      <chr>                                            <chr>   <chr>    
 1 B03001_002 Estimate!!Total:!!Not Hispanic or Latino         Hispan… tract    
 2 B03001_003 Estimate!!Total:!!Hispanic or Latino:            Hispan… tract    
 3 B03001_004 Estimate!!Total:!!Hispanic or Latino:!!Mexican   Hispan… tract    
 4 B03001_005 Estimate!!Total:!!Hispanic or Latino:!!Puerto R… Hispan… tract    
 5 B03001_006 Estimate!!Total:!!Hispanic or Latino:!!Cuban     Hispan… tract    
 6 B03001_007 Estimate!!Total:!!Hispanic or Latino:!!Dominica… Hispan… tract    
 7 B03001_008 Estimate!!Total:!!Hispanic or Latino:!!Central … Hispan… tract    
 8 B03001_009 Estimate!!Total:!!Hispanic or Latino:!!Central … Hispan… tract    
 9 B03001_010 Estimate!!Total:!!Hispanic or Latino:!!Central … Hispan… tract    
10 B03001_011 Estimate!!Total:!!Hispanic or Latino:!!Central … Hispan… tract    
# ℹ 20 more rows
…
Getting data from the 2018-2022 5-year ACS

Loading ACS5 variables for 2022 from table B03001. To cache this dataset for faster access to ACS tables in the future, run this function with `cache_table = TRUE`. You only need to do this once per ACS dataset.

latino_table_PA

# A tibble: 67 × 64
   GEOID NAME        B03001_001E B03001_001M B03001_002E B03001_002M B03001_003E
   <chr> <chr>             <dbl>       <dbl>       <dbl>       <dbl>       <dbl>
 1 42001 Adams Coun…      104604          NA       96916          NA        7688
 2 42003 Allegheny …     1245310          NA     1216038          NA       29272
 3 42005 Armstrong …       65538          NA       64978          NA         560
 4 42007 Beaver Cou…      167629          NA      164402          NA        3227
 5 42009 Bedford Co…       47613          NA       47015          NA         598
 6 42011 Berks Coun…      428483          NA      329023          NA       99460
 7 42013 Blair Coun…      122640          NA      120919          NA        1721
 8 42015 Bradford C…       60159          NA       59213          NA         946
 9 42017 Bucks Coun…      645163          NA      606968          NA       38195
10 42019 Butler Cou…      194562          NA      191171          NA        3391
# ℹ 57 more rows
# ℹ 57 more variables: B03001_003M <dbl>, B03001_004E <dbl>, B03001_004M <dbl>,
#   B03001_005E <dbl>, B03001_005M <dbl>, B03001_006E <dbl>, B03001_006M <dbl>,
#   B03001_007E <dbl>, B03001_007M <dbl>, B03001_008E <dbl>, B03001_008M <dbl>,
#   B03001_009E <dbl>, B03001_009M <dbl>, B03001_010E <dbl>, B03001_010M <dbl>,
#   B03001_011E <dbl>, B03001_011M <dbl>, B03001_012E <dbl>, B03001_012M <dbl>,
#   B03001_013E <dbl>, B03001_013M <dbl>, B03001_014E <dbl>, …
…
